[
    {
        "item":"1",
        "Detalle":"Pago de arriendo",
        "Categoria":"Casa",
        "Valor":"$1.800.000",
        "Fecha":"01-04-2022"
    },
    {
        "item":"2",
        "Detalle":"Salida a comer con amigos",
        "Categoria":"Entretenimiento",
        "Valor":"$102.000",
        "Fecha":"01-04-2022"
    },
    {
        "item":"3",
        "Detalle":"Mercado para el mes",
        "Categoria":"Alimentación",
        "Valor":"$700.000",
        "Fecha":"02-04-2022"
    },
    {
        "item":"4",
        "Detalle":"Gasolina para el carro",
        "Categoria":"Transporte",
        "Valor":"$123.000",
        "Fecha":"02-04-2022"
    },
    {
        "item":"5",
        "Detalle":"Reparación de la farola del carro",
        "Categoria":"Transporte",
        "Valor":"$220.000",
        "Fecha":"03-04-2022"
    },
    {
        "item":"6",
        "Detalle":"Mensualidad Gimnasio",
        "Categoria":"Salud",
        "Valor":"$71.900",
        "Fecha":"03-04-2022"
    }
]